{
  "count": 178,
  "next": "https://ll.thespacedevs.com/2.0.0/launch/upcoming/?limit=10&offset=10",
  "previous": null,
  "results": [
    {
      "id": "985f1cc1-82c1-4a89-b2cc-e9dc91829a0e",
      "url": "https://ll.thespacedevs.com/2.1.0/launch/985f1cc1-82c1-4a89-b2cc-e9dc91829a0e/",
      "launch_library_id": null,
      "slug": "falcon-9-block-5-starlink-19",
      "name": "Falcon 9 Block 5 | Starlink 19",
      "status": {
        "id": 3,
        "name": "Success"
      },
      "net": "2021-02-16T03:59:00Z",
      "window_end": "2021-02-16T03:59:00Z",
      "window_start": "2021-02-16T03:59:00Z",
      "inhold": false,
      "tbdtime": false,
      "tbddate": false,
      "probability": 60,
      "holdreason": "",
      "failreason": "",
      "hashtag": null,
      "launch_service_provider": {
        "id": 121,
        "url": "https://ll.thespacedevs.com/2.1.0/agencies/121/",
        "name": "SpaceX",
        "type": "Commercial"
      },
      "rocket": {
        "id": 2826,
        "configuration": {
          "id": 164,
          "launch_library_id": 188,
          "url": "https://ll.thespacedevs.com/2.1.0/config/launcher/164/",
          "name": "Falcon 9 Block 5",
          "family": "Falcon",
          "full_name": "Falcon 9 Block 5",
          "variant": "Block 5"
        }
      },
      "mission": {
        "id": 1233,
        "launch_library_id": null,
        "name": "Starlink 19",
        "description": "A batch of 60 satellites for Starlink mega-constellation - SpaceX's project for space-based Internet communication system.",
        "launch_designator": null,
        "type": "Communications",
        "orbit": {
          "id": 8,
          "name": "Low Earth Orbit",
          "abbrev": "LEO"
        }
      },
      "pad": {
        "id": 80,
        "url": "https://ll.thespacedevs.com/2.1.0/pad/80/",
        "agency_id": 121,
        "name": "Space Launch Complex 40",
        "info_url": null,
        "wiki_url": "https://en.wikipedia.org/wiki/Cape_Canaveral_Air_Force_Station_Space_Launch_Complex_40",
        "map_url": "http://maps.google.com/maps?q=28.56194122,-80.57735736",
        "latitude": "28.56194122",
        "longitude": "-80.57735736",
        "location": {
          "id": 12,
          "url": "https://ll.thespacedevs.com/2.1.0/location/12/",
          "name": "Cape Canaveral, FL, USA",
          "country_code": "USA",
          "map_image": "https://spacelaunchnow-prod-east.nyc3.digitaloceanspaces.com/media/launch_images/location_12_20200803142519.jpg",
          "total_launch_count": 212,
          "total_landing_count": 20
        },
        "map_image": "https://spacelaunchnow-prod-east.nyc3.digitaloceanspaces.com/media/launch_images/pad_80_20200803143323.jpg",
        "total_launch_count": 67
      },
      "webcast_live": true,
      "image": "https://spacelaunchnow-prod-east.nyc3.digitaloceanspaces.com/media/launch_images/falcon2520925_image_20210202223956.png",
      "infographic": null,
      "program": []
    },
    {
      "id": "f1a8d62e-709d-4e89-ade9-a8779492c7a9",
      "url": "https://ll.thespacedevs.com/2.1.0/launch/f1a8d62e-709d-4e89-ade9-a8779492c7a9/",
      "launch_library_id": 2044,
      "slug": "antares-230-cygnus-crs-2-ng-15-ss-katherine-johnso",
      "name": "Antares 230+ | Cygnus CRS-2 NG-15 (S.S. Katherine Johnson)",
      "status": {
        "id": 1,
        "name": "Go"
      },
      "net": "2021-02-20T17:36:00Z",
      "window_end": "2021-02-20T17:36:00Z",
      "window_start": "2021-02-20T17:36:00Z",
      "inhold": false,
      "tbdtime": true,
      "tbddate": true,
      "probability": -1,
      "holdreason": "",
      "failreason": "",
      "hashtag": null,
      "launch_service_provider": {
        "id": 257,
        "url": "https://ll.thespacedevs.com/2.1.0/agencies/257/",
        "name": "Northrop Grumman Innovation Systems",
        "type": "Commercial"
      },
      "rocket": {
        "id": 2677,
        "configuration": {
          "id": 210,
          "launch_library_id": 241,
          "url": "https://ll.thespacedevs.com/2.1.0/config/launcher/210/",
          "name": "Antares 230+",
          "family": "Antares",
          "full_name": "Antares 230+",
          "variant": "230+"
        }
      },
      "mission": {
        "id": 1236,
        "launch_library_id": null,
        "name": "Cygnus CRS-2 NG-15 (S.S. Katherine Johnson)",
        "description": "This is the 15th planned flight of the Orbital ATK's uncrewed resupply spacecraft Cygnus and its 14th flight to the International Space Station under the Commercial Resupply Services contract with NASA. This Cygnus spacecraft carries the name of American mathematician Katherine Johnson, whose calculations of orbital mechanics as a NASA employee were critical to the success of the first and subsequent U.S. crewed spaceflights.",
        "launch_designator": null,
        "type": "Resupply",
        "orbit": {
          "id": 8,
          "name": "Low Earth Orbit",
          "abbrev": "LEO"
        }
      },
      "pad": {
        "id": 76,
        "url": "https://ll.thespacedevs.com/2.1.0/pad/76/",
        "agency_id": 44,
        "name": "Launch Area 0 A",
        "info_url": null,
        "wiki_url": "",
        "map_url": "http://maps.google.com/maps?q=37.8337+N,+75.4881+W",
        "latitude": "37.8337",
        "longitude": "-75.4881",
        "location": {
          "id": 21,
          "url": "https://ll.thespacedevs.com/2.1.0/location/21/",
          "name": "Wallops Island, Virginia, USA",
          "country_code": "USA",
          "map_image": "https://spacelaunchnow-prod-east.nyc3.digitaloceanspaces.com/media/launch_images/location_21_20200803142423.jpg",
          "total_launch_count": 20,
          "total_landing_count": 0
        },
        "map_image": "https://spacelaunchnow-prod-east.nyc3.digitaloceanspaces.com/media/launch_images/pad_76_20200803143538.jpg",
        "total_launch_count": 13
      },
      "webcast_live": false,
      "image": "https://spacelaunchnow-prod-east.nyc3.digitaloceanspaces.com/media/launcher_images/antares2520230252b_image_20191102024633.jpeg",
      "infographic": null,
      "program": [
        {
          "id": 11,
          "url": "https://ll.thespacedevs.com/2.1.0/program/11/",
          "name": "Commercial Resupply Services",
          "description": "Commercial Resupply Services (CRS) are a series of flights awarded by NASA for the delivery of cargo and supplies to the International Space Station.The first CRS contracts were signed in 2008 and awarded $1.6 billion to SpaceX for twelve cargo Dragon and $1.9 billion to Orbital Sciences for eight Cygnus flights, covering deliveries to 2016. The Falcon 9 and Antares rockets were also developed under the CRS program to deliver cargo spacecraft to the ISS.",
          "agencies": [
            {
              "id": 44,
              "url": "https://ll.thespacedevs.com/2.1.0/agencies/44/",
              "name": "National Aeronautics and Space Administration",
              "type": "Government"
            },
            {
              "id": 257,
              "url": "https://ll.thespacedevs.com/2.1.0/agencies/257/",
              "name": "Northrop Grumman Innovation Systems",
              "type": "Commercial"
            },
            {
              "id": 1020,
              "url": "https://ll.thespacedevs.com/2.1.0/agencies/1020/",
              "name": "Sierra Nevada Corporation",
              "type": "Commercial"
            },
            {
              "id": 121,
              "url": "https://ll.thespacedevs.com/2.1.0/agencies/121/",
              "name": "SpaceX",
              "type": "Commercial"
            }
          ],
          "image_url": "https://spacelaunchnow-prod-east.nyc3.digitaloceanspaces.com/media/program_images/commercial2520_program_20201129212219.png",
          "start_date": "2008-12-23T00:00:00Z",
          "end_date": null,
          "info_url": null,
          "wiki_url": "https://en.wikipedia.org/wiki/Commercial_Resupply_Services#Commercial_Resupply_Services"
        }
      ]
    },
    {
      "id": "dfd4f0e0-0ab4-494d-bd88-1b93b934b269",
      "url": "https://ll.thespacedevs.com/2.1.0/launch/dfd4f0e0-0ab4-494d-bd88-1b93b934b269/",
      "launch_library_id": null,
      "slug": "falcon-9-block-5-starlink-17",
      "name": "Falcon 9 Block 5 | Starlink 17",
      "status": {
        "id": 2,
        "name": "TBD"
      },
      "net": "2021-02-21T05:12:00Z",
      "window_end": "2021-02-21T05:12:00Z",
      "window_start": "2021-02-21T05:12:00Z",
      "inhold": false,
      "tbdtime": false,
      "tbddate": false,
      "probability": null,
      "holdreason": "",
      "failreason": "",
      "hashtag": null,
      "launch_service_provider": {
        "id": 121,
        "url": "https://ll.thespacedevs.com/2.1.0/agencies/121/",
        "name": "SpaceX",
        "type": "Commercial"
      },
      "rocket": {
        "id": 2820,
        "configuration": {
          "id": 164,
          "launch_library_id": 188,
          "url": "https://ll.thespacedevs.com/2.1.0/config/launcher/164/",
          "name": "Falcon 9 Block 5",
          "family": "Falcon",
          "full_name": "Falcon 9 Block 5",
          "variant": "Block 5"
        }
      },
      "mission": {
        "id": 1229,
        "launch_library_id": null,
        "name": "Starlink 17",
        "description": "A batch of 60 satellites for Starlink mega-constellation - SpaceX's project for space-based Internet communication system.",
        "launch_designator": null,
        "type": "Communications",
        "orbit": {
          "id": 8,
          "name": "Low Earth Orbit",
          "abbrev": "LEO"
        }
      },
      "pad": {
        "id": 87,
        "url": "https://ll.thespacedevs.com/2.1.0/pad/87/",
        "agency_id": null,
        "name": "Launch Complex 39A",
        "info_url": null,
        "wiki_url": "https://en.wikipedia.org/wiki/Kennedy_Space_Center_Launch_Complex_39#Launch_Pad_39A",
        "map_url": "http://maps.google.com/maps?q=28.608+N,+80.604+W",
        "latitude": "28.60822681",
        "longitude": "-80.60428186",
        "location": {
          "id": 27,
          "url": "https://ll.thespacedevs.com/2.1.0/location/27/",
          "name": "Kennedy Space Center, FL, USA",
          "country_code": "USA",
          "map_image": "https://spacelaunchnow-prod-east.nyc3.digitaloceanspaces.com/media/launch_images/location_27_20200803142447.jpg",
          "total_launch_count": 183,
          "total_landing_count": 0
        },
        "map_image": "https://spacelaunchnow-prod-east.nyc3.digitaloceanspaces.com/media/launch_images/pad_87_20200803143537.jpg",
        "total_launch_count": 126
      },
      "webcast_live": false,
      "image": "https://spacelaunchnow-prod-east.nyc3.digitaloceanspaces.com/media/launch_images/falcon2520925_image_20210121062346.png",
      "infographic": "https://spacelaunchnow-prod-east.nyc3.digitaloceanspaces.com/media/launch_images/falcon2520925_infographic_20210203034450.jpeg",
      "program": []
    },
    {
      "id": "30412a48-cb4d-43d6-a304-6ae5f062504f",
      "url": "https://ll.thespacedevs.com/2.1.0/launch/30412a48-cb4d-43d6-a304-6ae5f062504f/",
      "launch_library_id": 2098,
      "slug": "kuaizhou-1a-jilin-1-02d",
      "name": "Kuaizhou-1A | Jilin-1-02D",
      "status": {
        "id": 2,
        "name": "TBD"
      },
      "net": "2021-02-28T00:00:00Z",
      "window_end": "2021-02-28T00:00:00Z",
      "window_start": "2021-02-28T00:00:00Z",
      "inhold": false,
      "tbdtime": true,
      "tbddate": true,
      "probability": -1,
      "holdreason": "",
      "failreason": "",
      "hashtag": null,
      "launch_service_provider": {
        "id": 184,
        "url": "https://ll.thespacedevs.com/2.1.0/agencies/184/",
        "name": "China Aerospace Science and Industry Corporation",
        "type": "Government"
      },
      "rocket": {
        "id": 2758,
        "configuration": {
          "id": 135,
          "launch_library_id": 155,
          "url": "https://ll.thespacedevs.com/2.1.0/config/launcher/135/",
          "name": "Kuaizhou",
          "family": "Kuaizhou",
          "full_name": "Kuaizhou-1A",
          "variant": "1A"
        }
      },
      "mission": {
        "id": 1156,
        "launch_library_id": 1346,
        "name": "Jilin-1-02D",
        "description": "Jilin-1 is a series of Chinese commercial remote sensing satellites.",
        "launch_designator": null,
        "type": "Earth Science",
        "orbit": null
      },
      "pad": {
        "id": 71,
        "url": "https://ll.thespacedevs.com/2.1.0/pad/71/",
        "agency_id": null,
        "name": "Unknown Pad",
        "info_url": null,
        "wiki_url": "",
        "map_url": "",
        "latitude": "40.958",
        "longitude": "100.291",
        "location": {
          "id": 17,
          "url": "https://ll.thespacedevs.com/2.1.0/location/17/",
          "name": "Jiuquan, People's Republic of China",
          "country_code": "CHN",
          "map_image": "https://spacelaunchnow-prod-east.nyc3.digitaloceanspaces.com/media/launch_images/location_17_20200803142429.jpg",
          "total_launch_count": 99,
          "total_landing_count": 0
        },
        "map_image": "https://spacelaunchnow-prod-east.nyc3.digitaloceanspaces.com/media/launch_images/pad_71_20200803143610.jpg",
        "total_launch_count": 26
      },
      "webcast_live": false,
      "image": "https://spacelaunchnow-prod-east.nyc3.digitaloceanspaces.com/media/launcher_images/kuaizhou_image_20191027094423.jpeg",
      "infographic": null,
      "program": []
    },
    {
      "id": "397c50c5-8a2b-4ca5-807d-8911c14b7126",
      "url": "https://ll.thespacedevs.com/2.1.0/launch/397c50c5-8a2b-4ca5-807d-8911c14b7126/",
      "launch_library_id": 1131,
      "slug": "gslv-mk-ii-eos-03-gisat-1",
      "name": "GSLV Mk II | EOS-03 (GISAT-1)",
      "status": {
        "id": 2,
        "name": "TBD"
      },
      "net": "2021-02-28T00:00:00Z",
      "window_end": "2021-02-28T00:00:00Z",
      "window_start": "2021-02-28T00:00:00Z",
      "inhold": false,
      "tbdtime": true,
      "tbddate": true,
      "probability": -1,
      "holdreason": "",
      "failreason": "",
      "hashtag": null,
      "launch_service_provider": {
        "id": 31,
        "url": "https://ll.thespacedevs.com/2.1.0/agencies/31/",
        "name": "Indian Space Research Organization",
        "type": "Government"
      },
      "rocket": {
        "id": 56,
        "configuration": {
          "id": 168,
          "launch_library_id": 60,
          "url": "https://ll.thespacedevs.com/2.1.0/config/launcher/168/",
          "name": "GSLV Mk II",
          "family": "PSLV",
          "full_name": "GSLV Mk. II",
          "variant": ""
        }
      },
      "mission": {
        "id": 750,
        "launch_library_id": 458,
        "name": "GISAT-1",
        "description": "GISAT-1 is an Indian earth observation satellite to be launched in geostationary orbit. It is tasked with continuous observation of Indian sub-continent and quick monitoring of natural hazards and disaster. GISAT carries an imaging payload consisting of of multi-spectral, multi-resolution from 50 m to 1.5 km. It will provide pictures of the area of interest on near real time basis including border areas.",
        "launch_designator": null,
        "type": "Earth Science",
        "orbit": {
          "id": 2,
          "name": "Geostationary Transfer Orbit",
          "abbrev": "GTO"
        }
      },
      "pad": {
        "id": 82,
        "url": "https://ll.thespacedevs.com/2.1.0/pad/82/",
        "agency_id": 31,
        "name": "Satish Dhawan Space Centre Second Launch Pad",
        "info_url": null,
        "wiki_url": "https://en.wikipedia.org/wiki/Satish_Dhawan_Space_Centre_Second_Launch_Pad",
        "map_url": "https://www.google.com/maps?q=13.7199,80.2304",
        "latitude": "13.7199",
        "longitude": "80.2304",
        "location": {
          "id": 14,
          "url": "https://ll.thespacedevs.com/2.1.0/location/14/",
          "name": "Sriharikota, Republic of India",
          "country_code": "IND",
          "map_image": "https://spacelaunchnow-prod-east.nyc3.digitaloceanspaces.com/media/launch_images/location_14_20200803142403.jpg",
          "total_launch_count": 53,
          "total_landing_count": 0
        },
        "map_image": "https://spacelaunchnow-prod-east.nyc3.digitaloceanspaces.com/media/launch_images/pad_82_20200803143602.jpg",
        "total_launch_count": 15
      },
      "webcast_live": false,
      "image": "https://spacelaunchnow-prod-east.nyc3.digitaloceanspaces.com/media/launcher_images/gslv2520mk2520ii_image_20190825171642.jpg",
      "infographic": "https://spacelaunchnow-prod-east.nyc3.digitaloceanspaces.com/media/launch_images/gslv2520mk252_infographic_20200805202604.png",
      "program": []
    },
    {
      "id": "504ba71a-bf09-48f1-9346-48c3d79e580b",
      "url": "https://ll.thespacedevs.com/2.1.0/launch/504ba71a-bf09-48f1-9346-48c3d79e580b/",
      "launch_library_id": null,
      "slug": "momo-flight-7",
      "name": "MOMO | Flight 7",
      "status": {
        "id": 2,
        "name": "TBD"
      },
      "net": "2021-02-28T00:00:00Z",
      "window_end": "2021-02-28T00:00:00Z",
      "window_start": "2021-02-28T00:00:00Z",
      "inhold": false,
      "tbdtime": false,
      "tbddate": false,
      "probability": null,
      "holdreason": "",
      "failreason": "",
      "hashtag": null,
      "launch_service_provider": {
        "id": 1002,
        "url": "https://ll.thespacedevs.com/2.1.0/agencies/1002/",
        "name": "Interstellar Technologies",
        "type": null
      },
      "rocket": {
        "id": 2730,
        "configuration": {
          "id": 198,
          "launch_library_id": null,
          "url": "https://ll.thespacedevs.com/2.1.0/config/launcher/198/",
          "name": "MOMO",
          "family": "MOMO",
          "full_name": "MOMO",
          "variant": ""
        }
      },
      "mission": {
        "id": 1132,
        "launch_library_id": null,
        "name": "Flight 7",
        "description": "The sixth (Flight 6 has not happened yet) flight of Interstellar Technologies MOMO rocket.",
        "launch_designator": null,
        "type": "Suborbital",
        "orbit": {
          "id": 15,
          "name": "Suborbital",
          "abbrev": "Sub"
        }
      },
      "pad": {
        "id": 106,
        "url": "https://ll.thespacedevs.com/2.1.0/pad/106/",
        "agency_id": 1002,
        "name": "Taiki-cho, Hokkaido, Japan",
        "info_url": null,
        "wiki_url": null,
        "map_url": null,
        "latitude": "42.50000000",
        "longitude": "143.28333333",
        "location": {
          "id": 32,
          "url": "https://ll.thespacedevs.com/2.1.0/location/32/",
          "name": "Taiki-cho, Hokkaido, Japan",
          "country_code": "JPN",
          "map_image": "https://spacelaunchnow-prod-east.nyc3.digitaloceanspaces.com/media/launch_images/location_32_20200803142407.jpg",
          "total_launch_count": 5,
          "total_landing_count": 0
        },
        "map_image": "https://spacelaunchnow-prod-east.nyc3.digitaloceanspaces.com/media/launch_images/pad_106_20200803143453.jpg",
        "total_launch_count": 5
      },
      "webcast_live": false,
      "image": "https://spacelaunchnow-prod-east.nyc3.digitaloceanspaces.com/media/launcher_images/momo_image_20190705174455.jpg",
      "infographic": null,
      "program": []
    },
    {
      "id": "54542f3a-1a28-430b-a416-03f58e1a88d2",
      "url": "https://ll.thespacedevs.com/2.1.0/launch/54542f3a-1a28-430b-a416-03f58e1a88d2/",
      "launch_library_id": 1357,
      "slug": "long-march-3b-fengyun-4b",
      "name": "Long March 3B | Fengyun-4B",
      "status": {
        "id": 2,
        "name": "TBD"
      },
      "net": "2021-02-28T00:00:00Z",
      "window_end": "2021-02-28T00:00:00Z",
      "window_start": "2021-02-28T00:00:00Z",
      "inhold": false,
      "tbdtime": true,
      "tbddate": true,
      "probability": -1,
      "holdreason": "",
      "failreason": "",
      "hashtag": null,
      "launch_service_provider": {
        "id": 88,
        "url": "https://ll.thespacedevs.com/2.1.0/agencies/88/",
        "name": "China Aerospace Science and Technology Corporation",
        "type": "Government"
      },
      "rocket": {
        "id": 70,
        "configuration": {
          "id": 19,
          "launch_library_id": 22,
          "url": "https://ll.thespacedevs.com/2.1.0/config/launcher/19/",
          "name": "Long March 3",
          "family": "Long March 3",
          "full_name": "Long March 3B",
          "variant": "3B"
        }
      },
      "mission": {
        "id": 1122,
        "launch_library_id": 1319,
        "name": "Fengyun-4B",
        "description": "China's geostationary meteorological satellite program FY-4 (Feng Yun 4) is the second generation of chinese geostationary meteorological satellites.",
        "launch_designator": null,
        "type": "Earth Science",
        "orbit": null
      },
      "pad": {
        "id": 86,
        "url": "https://ll.thespacedevs.com/2.1.0/pad/86/",
        "agency_id": 17,
        "name": "Unknown",
        "info_url": null,
        "wiki_url": "https://en.wikipedia.org/wiki/Xichang_Satellite_Launch_Center",
        "map_url": "https://www.google.com/maps?ll=28.246017,102.026556&q=28.246017,102.026556&hl=en&t=m&z=15",
        "latitude": "28.246017",
        "longitude": "102.026556",
        "location": {
          "id": 16,
          "url": "https://ll.thespacedevs.com/2.1.0/location/16/",
          "name": "Xichang Satellite Launch Center, People's Republic of China",
          "country_code": "CHN",
          "map_image": "https://spacelaunchnow-prod-east.nyc3.digitaloceanspaces.com/media/launch_images/location_16_20200803142513.jpg",
          "total_launch_count": 101,
          "total_landing_count": 0
        },
        "map_image": "https://spacelaunchnow-prod-east.nyc3.digitaloceanspaces.com/media/launch_images/pad_86_20200803143555.jpg",
        "total_launch_count": 17
      },
      "webcast_live": false,
      "image": "https://spacelaunchnow-prod-east.nyc3.digitaloceanspaces.com/media/launcher_images/long2520march25203_image_20200102181012.jpg",
      "infographic": null,
      "program": []
    },
    {
      "id": "6d847530-c328-445b-9689-6969ae689d79",
      "url": "https://ll.thespacedevs.com/2.1.0/launch/6d847530-c328-445b-9689-6969ae689d79/",
      "launch_library_id": 1420,
      "slug": "long-march-4c-fengyun-3e",
      "name": "Long March 4C | Fengyun-3E",
      "status": {
        "id": 2,
        "name": "TBD"
      },
      "net": "2021-02-28T00:00:00Z",
      "window_end": "2021-02-28T00:00:00Z",
      "window_start": "2021-02-28T00:00:00Z",
      "inhold": false,
      "tbdtime": true,
      "tbddate": true,
      "probability": -1,
      "holdreason": "",
      "failreason": "",
      "hashtag": null,
      "launch_service_provider": {
        "id": 88,
        "url": "https://ll.thespacedevs.com/2.1.0/agencies/88/",
        "name": "China Aerospace Science and Technology Corporation",
        "type": "Government"
      },
      "rocket": {
        "id": 73,
        "configuration": {
          "id": 64,
          "launch_library_id": 70,
          "url": "https://ll.thespacedevs.com/2.1.0/config/launcher/64/",
          "name": "Long March 4C",
          "family": "Long March 4",
          "full_name": "Long March 4C",
          "variant": "C"
        }
      },
      "mission": null,
      "pad": {
        "id": 60,
        "url": "https://ll.thespacedevs.com/2.1.0/pad/60/",
        "agency_id": null,
        "name": "Unknown Pad",
        "info_url": null,
        "wiki_url": "",
        "map_url": "",
        "latitude": "38.849",
        "longitude": "111.608",
        "location": {
          "id": 19,
          "url": "https://ll.thespacedevs.com/2.1.0/location/19/",
          "name": "Taiyuan, People's Republic of China",
          "country_code": "CHN",
          "map_image": "https://spacelaunchnow-prod-east.nyc3.digitaloceanspaces.com/media/launch_images/location_19_20200803142421.jpg",
          "total_launch_count": 58,
          "total_landing_count": 0
        },
        "map_image": "https://spacelaunchnow-prod-east.nyc3.digitaloceanspaces.com/media/launch_images/pad_60_20200803143606.jpg",
        "total_launch_count": 27
      },
      "webcast_live": false,
      "image": "https://spacelaunchnow-prod-east.nyc3.digitaloceanspaces.com/media/launcher_images/long2520march25204_image_20190520170012.jpeg",
      "infographic": null,
      "program": []
    },
    {
      "id": "708c2b85-50d6-4baa-bd3e-fdfb0257ea50",
      "url": "https://ll.thespacedevs.com/2.1.0/launch/708c2b85-50d6-4baa-bd3e-fdfb0257ea50/",
      "launch_library_id": 2099,
      "slug": "kuaizhou-1a-jilin-1-02f",
      "name": "Kuaizhou-1A | Jilin-1-02F",
      "status": {
        "id": 2,
        "name": "TBD"
      },
      "net": "2021-02-28T00:00:00Z",
      "window_end": "2021-02-28T00:00:00Z",
      "window_start": "2021-02-28T00:00:00Z",
      "inhold": false,
      "tbdtime": true,
      "tbddate": true,
      "probability": -1,
      "holdreason": "",
      "failreason": "",
      "hashtag": null,
      "launch_service_provider": {
        "id": 184,
        "url": "https://ll.thespacedevs.com/2.1.0/agencies/184/",
        "name": "China Aerospace Science and Industry Corporation",
        "type": "Government"
      },
      "rocket": {
        "id": 2759,
        "configuration": {
          "id": 135,
          "launch_library_id": 155,
          "url": "https://ll.thespacedevs.com/2.1.0/config/launcher/135/",
          "name": "Kuaizhou",
          "family": "Kuaizhou",
          "full_name": "Kuaizhou-1A",
          "variant": "1A"
        }
      },
      "mission": {
        "id": 1157,
        "launch_library_id": 1347,
        "name": "Jilin-1-02F",
        "description": "Jilin-1 is a series of Chinese commercial remote sensing satellites.",
        "launch_designator": null,
        "type": "Earth Science",
        "orbit": null
      },
      "pad": {
        "id": 71,
        "url": "https://ll.thespacedevs.com/2.1.0/pad/71/",
        "agency_id": null,
        "name": "Unknown Pad",
        "info_url": null,
        "wiki_url": "",
        "map_url": "",
        "latitude": "40.958",
        "longitude": "100.291",
        "location": {
          "id": 17,
          "url": "https://ll.thespacedevs.com/2.1.0/location/17/",
          "name": "Jiuquan, People's Republic of China",
          "country_code": "CHN",
          "map_image": "https://spacelaunchnow-prod-east.nyc3.digitaloceanspaces.com/media/launch_images/location_17_20200803142429.jpg",
          "total_launch_count": 99,
          "total_landing_count": 0
        },
        "map_image": "https://spacelaunchnow-prod-east.nyc3.digitaloceanspaces.com/media/launch_images/pad_71_20200803143610.jpg",
        "total_launch_count": 26
      },
      "webcast_live": false,
      "image": "https://spacelaunchnow-prod-east.nyc3.digitaloceanspaces.com/media/launcher_images/kuaizhou_image_20191027094423.jpeg",
      "infographic": null,
      "program": []
    },
    {
      "id": "b7e42e9f-7c6c-4a7b-ade3-e19df59209ae",
      "url": "https://ll.thespacedevs.com/2.1.0/launch/b7e42e9f-7c6c-4a7b-ade3-e19df59209ae/",
      "launch_library_id": 1326,
      "slug": "soyuz-21bfregat-m-arktika-m-no1",
      "name": "Soyuz 2.1b/Fregat-M | Arktika-M No.1",
      "status": {
        "id": 2,
        "name": "TBD"
      },
      "net": "2021-02-28T00:00:00Z",
      "window_end": "2021-02-28T00:00:00Z",
      "window_start": "2021-02-28T00:00:00Z",
      "inhold": false,
      "tbdtime": true,
      "tbddate": true,
      "probability": -1,
      "holdreason": "",
      "failreason": "",
      "hashtag": null,
      "launch_service_provider": {
        "id": 63,
        "url": "https://ll.thespacedevs.com/2.1.0/agencies/63/",
        "name": "Russian Federal Space Agency (ROSCOSMOS)",
        "type": "Government"
      },
      "rocket": {
        "id": 65,
        "configuration": {
          "id": 134,
          "launch_library_id": 153,
          "url": "https://ll.thespacedevs.com/2.1.0/config/launcher/134/",
          "name": "Soyuz 2.1b/Fregat-M",
          "family": "Soyuz",
          "full_name": "Soyuz 2.1b Fregat-M",
          "variant": "Fregat-M"
        }
      },
      "mission": null,
      "pad": {
        "id": 20,
        "url": "https://ll.thespacedevs.com/2.1.0/pad/20/",
        "agency_id": null,
        "name": "31/6",
        "info_url": null,
        "wiki_url": "",
        "map_url": "http://maps.google.com/maps?q=45.996+N,+63.564+E",
        "latitude": "45.996034",
        "longitude": "63.564003",
        "location": {
          "id": 15,
          "url": "https://ll.thespacedevs.com/2.1.0/location/15/",
          "name": "Baikonur Cosmodrome, Republic of Kazakhstan",
          "country_code": "KAZ",
          "map_image": "https://spacelaunchnow-prod-east.nyc3.digitaloceanspaces.com/media/launch_images/location_15_20200803142517.jpg",
          "total_launch_count": 466,
          "total_landing_count": 0
        },
        "map_image": "https://spacelaunchnow-prod-east.nyc3.digitaloceanspaces.com/media/launch_images/pad_20_20200803143516.jpg",
        "total_launch_count": 76
      },
      "webcast_live": false,
      "image": "https://spacelaunchnow-prod-east.nyc3.digitaloceanspaces.com/media/launcher_images/soyuz25202.1b_image_20190520165337.jpg",
      "infographic": null,
      "program": []
    }
  ]
}