{"count":181,"next":"https://ll.thespacedevs.com/2.0.0/launch/upcoming/?limit=10&offset=10","previous":null,"results":[{"id":"2a787f32-69db-4f78-b69e-df26e5c2ab88","url":"https://ll.thespacedevs.com/2.2.0/launch/2a787f32-69db-4f78-b69e-df26e5c2ab88/","launch_library_id":1662,"slug":"pslv-dl-amazonia-1-18-others","name":"PSLV-DL | Amazonia 1 & 18 others","status":{"id":1,"name":"Go"},"net":"2021-02-28T04:53:00Z","window_end":"2021-02-28T04:53:00Z","window_start":"2021-02-28T04:53:00Z","inhold":false,"tbdtime":false,"tbddate":false,"probability":-1,"holdreason":"","failreason":"","hashtag":null,"launch_service_provider":{"id":31,"url":"https://ll.thespacedevs.com/2.2.0/agencies/31/","name":"Indian Space Research Organization","type":"Government"},"rocket":{"id":2178,"configuration":{"id":178,"launch_library_id":215,"url":"https://ll.thespacedevs.com/2.2.0/config/launcher/178/","name":"PSLV-DL","family":"PSLV","full_name":"PSLV-DL","variant":"DL"}},"mission":{"id":1244,"launch_library_id":null,"name":"Amazonia & 18 others","description":"Amazonia 1 is a Brazilian optical Earth observation satellite of the National Institute for Space Research (INPE). This satellite will further strengthen the existing structure by providing remote sensing data to users for monitoring deforestation in the Amazon region and analysis of diversified agriculture across the Brazilian territory.\r\n\r\nThe 18 co-passenger satellites include four from IN-SPACe (three UNITYsats from consortium of three Indian academic institutes and One Satish Dhawan Sat from Space Kidz India) and 14 from NSIL.","launch_designator":null,"type":"Earth Science","orbit":{"id":17,"name":"Sun-Synchronous Orbit","abbrev":"SSO"}},"pad":{"id":50,"url":"https://ll.thespacedevs.com/2.2.0/pad/50/","agency_id":31,"name":"Satish Dhawan Space Centre First Launch Pad","info_url":null,"wiki_url":"https://en.wikipedia.org/wiki/Satish_Dhawan_Space_Centre_First_Launch_Pad","map_url":"https://www.google.com/maps?q=13.733,80.235","latitude":"13.733","longitude":"80.235","location":{"id":14,"url":"https://ll.thespacedevs.com/2.2.0/location/14/","name":"Sriharikota, Republic of India","country_code":"IND","map_image":"https://spacelaunchnow-prod-east.nyc3.digitaloceanspaces.com/media/launch_images/location_14_20200803142403.jpg","total_launch_count":53,"total_landing_count":0},"map_image":"https://spacelaunchnow-prod-east.nyc3.digitaloceanspaces.com/media/launch_images/pad_50_20200803143457.jpg","total_launch_count":38},"webcast_live":false,"image":"https://spacelaunchnow-prod-east.nyc3.digitaloceanspaces.com/media/launcher_images/pslv-dl_image_20191201202351.jpeg","infographic":null,"program":[]},{"id":"b7e42e9f-7c6c-4a7b-ade3-e19df59209ae","url":"https://ll.thespacedevs.com/2.2.0/launch/b7e42e9f-7c6c-4a7b-ade3-e19df59209ae/","launch_library_id":1326,"slug":"soyuz-21bfregat-m-arktika-m-no1","name":"Soyuz 2.1b/Fregat-M | Arktika-M No.1","status":{"id":1,"name":"Go"},"net":"2021-02-28T06:55:00Z","window_end":"2021-02-28T06:55:00Z","window_start":"2021-02-28T06:55:00Z","inhold":false,"tbdtime":true,"tbddate":true,"probability":-1,"holdreason":"","failreason":"","hashtag":null,"launch_service_provider":{"id":63,"url":"https://ll.thespacedevs.com/2.2.0/agencies/63/","name":"Russian Federal Space Agency (ROSCOSMOS)","type":"Government"},"rocket":{"id":65,"configuration":{"id":134,"launch_library_id":153,"url":"https://ll.thespacedevs.com/2.2.0/config/launcher/134/","name":"Soyuz 2.1b/Fregat-M","family":"Soyuz","full_name":"Soyuz 2.1b Fregat-M","variant":"Fregat-M"}},"mission":{"id":1247,"launch_library_id":null,"name":"Arktika-M No.1","description":"Arktika-M (\"Arctic-M\") is a series of Earh observation satellites which will gather meteorological and hydrological data on polar region. Arktika-M satellites will also provide communication services for the region.","launch_designator":null,"type":"Earth Science","orbit":{"id":0,"name":"Elliptical Orbit","abbrev":"Elliptical"}},"pad":{"id":20,"url":"https://ll.thespacedevs.com/2.2.0/pad/20/","agency_id":null,"name":"31/6","info_url":null,"wiki_url":"","map_url":"http://maps.google.com/maps?q=45.996+N,+63.564+E","latitude":"45.996034","longitude":"63.564003","location":{"id":15,"url":"https://ll.thespacedevs.com/2.2.0/location/15/","name":"Baikonur Cosmodrome, Republic of Kazakhstan","country_code":"KAZ","map_image":"https://spacelaunchnow-prod-east.nyc3.digitaloceanspaces.com/media/launch_images/location_15_20200803142517.jpg","total_launch_count":466,"total_landing_count":0},"map_image":"https://spacelaunchnow-prod-east.nyc3.digitaloceanspaces.com/media/launch_images/pad_20_20200803143516.jpg","total_launch_count":76},"webcast_live":false,"image":"https://spacelaunchnow-prod-east.nyc3.digitaloceanspaces.com/media/launcher_images/soyuz25202.1b_image_20190520165337.jpg","infographic":null,"program":[]},{"id":"dfd4f0e0-0ab4-494d-bd88-1b93b934b269","url":"https://ll.thespacedevs.com/2.2.0/launch/dfd4f0e0-0ab4-494d-bd88-1b93b934b269/","launch_library_id":null,"slug":"falcon-9-block-5-starlink-17","name":"Falcon 9 Block 5 | Starlink 17","status":{"id":1,"name":"Go"},"net":"2021-03-01T01:37:00Z","window_end":"2021-03-01T01:37:00Z","window_start":"2021-03-01T01:37:00Z","inhold":false,"tbdtime":false,"tbddate":false,"probability":80,"holdreason":"","failreason":"","hashtag":null,"launch_service_provider":{"id":121,"url":"https://ll.thespacedevs.com/2.2.0/agencies/121/","name":"SpaceX","type":"Commercial"},"rocket":{"id":2820,"configuration":{"id":164,"launch_library_id":188,"url":"https://ll.thespacedevs.com/2.2.0/config/launcher/164/","name":"Falcon 9 Block 5","family":"Falcon","full_name":"Falcon 9 Block 5","variant":"Block 5"}},"mission":{"id":1229,"launch_library_id":null,"name":"Starlink 17","description":"A batch of 60 satellites for Starlink mega-constellation - SpaceX's project for space-based Internet communication system.","launch_designator":null,"type":"Communications","orbit":{"id":8,"name":"Low Earth Orbit","abbrev":"LEO"}},"pad":{"id":87,"url":"https://ll.thespacedevs.com/2.2.0/pad/87/","agency_id":null,"name":"Launch Complex 39A","info_url":null,"wiki_url":"https://en.wikipedia.org/wiki/Kennedy_Space_Center_Launch_Complex_39#Launch_Pad_39A","map_url":"http://maps.google.com/maps?q=28.608+N,+80.604+W","latitude":"28.60822681","longitude":"-80.60428186","location":{"id":27,"url":"https://ll.thespacedevs.com/2.2.0/location/27/","name":"Kennedy Space Center, FL, USA","country_code":"USA","map_image":"https://spacelaunchnow-prod-east.nyc3.digitaloceanspaces.com/media/launch_images/location_27_20200803142447.jpg","total_launch_count":183,"total_landing_count":0},"map_image":"https://spacelaunchnow-prod-east.nyc3.digitaloceanspaces.com/media/launch_images/pad_87_20200803143537.jpg","total_launch_count":126},"webcast_live":false,"image":"https://spacelaunchnow-prod-east.nyc3.digitaloceanspaces.com/media/launch_images/falcon2520925_image_20210121062346.png","infographic":"https://spacelaunchnow-prod-east.nyc3.digitaloceanspaces.com/media/launch_images/falcon2520925_infographic_20210203034450.jpeg","program":[]},{"id":"c0ac9a61-5aac-40d7-9919-3c29ea7d4172","url":"https://ll.thespacedevs.com/2.2.0/launch/c0ac9a61-5aac-40d7-9919-3c29ea7d4172/","launch_library_id":null,"slug":"starship-sn10-10-km-flight","name":"Starship SN10 | 10 km Flight","status":{"id":2,"name":"TBD"},"net":"2021-03-01T18:00:00Z","window_end":"2021-03-02T00:30:00Z","window_start":"2021-03-01T15:00:00Z","inhold":false,"tbdtime":false,"tbddate":false,"probability":null,"holdreason":"","failreason":"","hashtag":null,"launch_service_provider":{"id":121,"url":"https://ll.thespacedevs.com/2.2.0/agencies/121/","name":"SpaceX","type":"Commercial"},"rocket":{"id":2832,"configuration":{"id":207,"launch_library_id":null,"url":"https://ll.thespacedevs.com/2.2.0/config/launcher/207/","name":"Starship Prototype","family":"Starship","full_name":"Starship Prototype","variant":"Prototype"}},"mission":{"id":1239,"launch_library_id":null,"name":"10 km Flight","description":"The SN10 Starship will perform a test flight similar to SN8 and SN9. It will launch up to an altitude of 10 km or 33,000 ft, do a belly flop maneuver followed by a controlled descent to the landing pad.","launch_designator":null,"type":"Test Flight","orbit":{"id":15,"name":"Suborbital","abbrev":"Sub"}},"pad":{"id":111,"url":"https://ll.thespacedevs.com/2.2.0/pad/111/","agency_id":null,"name":"Launch Pad A","info_url":null,"wiki_url":"https://en.wikipedia.org/wiki/SpaceX_South_Texas_Launch_Site","map_url":"https://www.google.com/maps?q=25.997116+N,+97.15503099856647+W","latitude":"25.997116","longitude":"-97.15503099856647","location":{"id":143,"url":"https://ll.thespacedevs.com/2.2.0/location/143/","name":"SpaceX Space Launch Facility, TX, USA","country_code":"USA","map_image":"https://spacelaunchnow-prod-east.nyc3.digitaloceanspaces.com/media/launch_images/location_143_20200803142438.jpg","total_launch_count":6,"total_landing_count":6},"map_image":"https://spacelaunchnow-prod-east.nyc3.digitaloceanspaces.com/media/launch_images/pad_111_20200803143229.jpg","total_launch_count":5},"webcast_live":false,"image":"https://spacelaunchnow-prod-east.nyc3.digitaloceanspaces.com/media/launch_images/starship2520sn_image_20210217140457.jpeg","infographic":null,"program":[{"id":1,"url":"https://ll.thespacedevs.com/2.2.0/program/1/","name":"SpaceX Starship","description":"The SpaceX Starship is a fully reusable super heavy-lift launch vehicle under development by SpaceX since 2012, as a self-funded private spaceflight project.  The second stage of the Starship — is designed as a long-duration cargo and passenger-carrying spacecraft. It is expected to be initially used without any booster stage at all, as part of an extensive development program to prove out launch-and-landing and iterate on a variety of design details, particularly with respect to the vehicle's atmospheric reentry.","agencies":[{"id":121,"url":"https://ll.thespacedevs.com/2.2.0/agencies/121/","name":"SpaceX","type":"Commercial"}],"image_url":"https://spacelaunchnow-prod-east.nyc3.digitaloceanspaces.com/media/program_images/spacex2520star_program_20201129204513.png","start_date":"2019-03-01T05:00:00Z","end_date":null,"info_url":"https://www.spacex.com/vehicles/starship/","wiki_url":"https://en.wikipedia.org/wiki/SpaceX_Starship"}]},{"id":"134eb787-244e-4131-8b03-c9fbd0a11efc","url":"https://ll.thespacedevs.com/2.2.0/launch/134eb787-244e-4131-8b03-c9fbd0a11efc/","launch_library_id":null,"slug":"falcon-9-block-5-starlink-20","name":"Falcon 9 Block 5 | Starlink 20","status":{"id":2,"name":"TBD"},"net":"2021-03-08T00:00:00Z","window_end":"2021-03-08T00:00:00Z","window_start":"2021-03-08T00:00:00Z","inhold":false,"tbdtime":false,"tbddate":false,"probability":null,"holdreason":"","failreason":"","hashtag":null,"launch_service_provider":{"id":121,"url":"https://ll.thespacedevs.com/2.2.0/agencies/121/","name":"SpaceX","type":"Commercial"},"rocket":{"id":2833,"configuration":{"id":164,"launch_library_id":188,"url":"https://ll.thespacedevs.com/2.2.0/config/launcher/164/","name":"Falcon 9 Block 5","family":"Falcon","full_name":"Falcon 9 Block 5","variant":"Block 5"}},"mission":{"id":1240,"launch_library_id":null,"name":"Starlink 20","description":"A batch of 60 satellites for Starlink mega-constellation - SpaceX's project for space-based Internet communication system.","launch_designator":null,"type":"Communications","orbit":{"id":8,"name":"Low Earth Orbit","abbrev":"LEO"}},"pad":{"id":80,"url":"https://ll.thespacedevs.com/2.2.0/pad/80/","agency_id":121,"name":"Space Launch Complex 40","info_url":null,"wiki_url":"https://en.wikipedia.org/wiki/Cape_Canaveral_Air_Force_Station_Space_Launch_Complex_40","map_url":"http://maps.google.com/maps?q=28.56194122,-80.57735736","latitude":"28.56194122","longitude":"-80.57735736","location":{"id":12,"url":"https://ll.thespacedevs.com/2.2.0/location/12/","name":"Cape Canaveral, FL, USA","country_code":"USA","map_image":"https://spacelaunchnow-prod-east.nyc3.digitaloceanspaces.com/media/launch_images/location_12_20200803142519.jpg","total_launch_count":212,"total_landing_count":20},"map_image":"https://spacelaunchnow-prod-east.nyc3.digitaloceanspaces.com/media/launch_images/pad_80_20200803143323.jpg","total_launch_count":67},"webcast_live":false,"image":"https://spacelaunchnow-prod-east.nyc3.digitaloceanspaces.com/media/launch_images/falcon2520925_image_20210218213404.png","infographic":null,"program":[]},{"id":"89a150ea-6e4b-489f-853c-3603ae684611","url":"https://ll.thespacedevs.com/2.2.0/launch/89a150ea-6e4b-489f-853c-3603ae684611/","launch_library_id":2090,"slug":"falcon-9-block-5-dragon-crs-2-spx-22","name":"Falcon 9 Block 5 | Dragon CRS-2 SpX-22","status":{"id":2,"name":"TBD"},"net":"2021-03-12T00:00:00Z","window_end":"2021-03-12T00:00:00Z","window_start":"2021-03-12T00:00:00Z","inhold":false,"tbdtime":true,"tbddate":true,"probability":-1,"holdreason":"","failreason":"","hashtag":null,"launch_service_provider":{"id":121,"url":"https://ll.thespacedevs.com/2.2.0/agencies/121/","name":"SpaceX","type":"Commercial"},"rocket":{"id":2746,"configuration":{"id":164,"launch_library_id":188,"url":"https://ll.thespacedevs.com/2.2.0/config/launcher/164/","name":"Falcon 9 Block 5","family":"Falcon","full_name":"Falcon 9 Block 5","variant":"Block 5"}},"mission":{"id":1241,"launch_library_id":null,"name":"Dragon CRS-2 SpX-22","description":"SpaceX will launch the second cargo variant of its Dragon 2 spacecraft on their 22nd commercial resupply services mission to the International Space Station. The flight will be conducted under the second Commercial Resupply Services contract with NASA.\r\n\r\nDragon will be filled with supplies and payloads, including critical materials to directly support science and research investigations that occur onboard the orbiting laboratory.","launch_designator":null,"type":"Resupply","orbit":{"id":8,"name":"Low Earth Orbit","abbrev":"LEO"}},"pad":{"id":87,"url":"https://ll.thespacedevs.com/2.2.0/pad/87/","agency_id":null,"name":"Launch Complex 39A","info_url":null,"wiki_url":"https://en.wikipedia.org/wiki/Kennedy_Space_Center_Launch_Complex_39#Launch_Pad_39A","map_url":"http://maps.google.com/maps?q=28.608+N,+80.604+W","latitude":"28.60822681","longitude":"-80.60428186","location":{"id":27,"url":"https://ll.thespacedevs.com/2.2.0/location/27/","name":"Kennedy Space Center, FL, USA","country_code":"USA","map_image":"https://spacelaunchnow-prod-east.nyc3.digitaloceanspaces.com/media/launch_images/location_27_20200803142447.jpg","total_launch_count":183,"total_landing_count":0},"map_image":"https://spacelaunchnow-prod-east.nyc3.digitaloceanspaces.com/media/launch_images/pad_87_20200803143537.jpg","total_launch_count":126},"webcast_live":false,"image":"https://spacelaunchnow-prod-east.nyc3.digitaloceanspaces.com/media/launcher_images/falcon25209_image_20190224025007.jpeg","infographic":null,"program":[{"id":11,"url":"https://ll.thespacedevs.com/2.2.0/program/11/","name":"Commercial Resupply Services","description":"Commercial Resupply Services (CRS) are a series of flights awarded by NASA for the delivery of cargo and supplies to the International Space Station.The first CRS contracts were signed in 2008 and awarded $1.6 billion to SpaceX for twelve cargo Dragon and $1.9 billion to Orbital Sciences for eight Cygnus flights, covering deliveries to 2016. The Falcon 9 and Antares rockets were also developed under the CRS program to deliver cargo spacecraft to the ISS.","agencies":[{"id":44,"url":"https://ll.thespacedevs.com/2.2.0/agencies/44/","name":"National Aeronautics and Space Administration","type":"Government"},{"id":257,"url":"https://ll.thespacedevs.com/2.2.0/agencies/257/","name":"Northrop Grumman Innovation Systems","type":"Commercial"},{"id":1020,"url":"https://ll.thespacedevs.com/2.2.0/agencies/1020/","name":"Sierra Nevada Corporation","type":"Commercial"},{"id":121,"url":"https://ll.thespacedevs.com/2.2.0/agencies/121/","name":"SpaceX","type":"Commercial"}],"image_url":"https://spacelaunchnow-prod-east.nyc3.digitaloceanspaces.com/media/program_images/commercial2520_program_20201129212219.png","start_date":"2008-12-23T00:00:00Z","end_date":null,"info_url":null,"wiki_url":"https://en.wikipedia.org/wiki/Commercial_Resupply_Services#Commercial_Resupply_Services"}]},{"id":"bb2a5291-0aef-4c2a-8e29-93362d256fea","url":"https://ll.thespacedevs.com/2.2.0/launch/bb2a5291-0aef-4c2a-8e29-93362d256fea/","launch_library_id":1684,"slug":"firefly-alpha-maiden-flight","name":"Firefly Alpha | Maiden Flight","status":{"id":2,"name":"TBD"},"net":"2021-03-14T00:00:00Z","window_end":"2021-03-14T00:00:00Z","window_start":"2021-03-14T00:00:00Z","inhold":false,"tbdtime":true,"tbddate":true,"probability":-1,"holdreason":"","failreason":"","hashtag":null,"launch_service_provider":{"id":265,"url":"https://ll.thespacedevs.com/2.2.0/agencies/265/","name":"Firefly Aerospace","type":null},"rocket":{"id":2210,"configuration":{"id":179,"launch_library_id":216,"url":"https://ll.thespacedevs.com/2.2.0/config/launcher/179/","name":"Firefly Alpha","family":"Firefly Alpha","full_name":"Firefly Alpha","variant":""}},"mission":{"id":966,"launch_library_id":1180,"name":"Maiden Flight","description":"First flight of the new Firefly Alpha small sat launcher developed by Firefly Aerospace.","launch_designator":null,"type":"Test Flight","orbit":{"id":8,"name":"Low Earth Orbit","abbrev":"LEO"}},"pad":{"id":39,"url":"https://ll.thespacedevs.com/2.2.0/pad/39/","agency_id":null,"name":"Space Launch Complex 2W","info_url":null,"wiki_url":"","map_url":"http://maps.google.com/maps?q=34.7556+N,+120.6224+W","latitude":"34.7556","longitude":"-120.6224","location":{"id":11,"url":"https://ll.thespacedevs.com/2.2.0/location/11/","name":"Vandenberg AFB, CA, USA","country_code":"USA","map_image":"https://spacelaunchnow-prod-east.nyc3.digitaloceanspaces.com/media/launch_images/location_11_20200803142416.jpg","total_launch_count":83,"total_landing_count":3},"map_image":"https://spacelaunchnow-prod-east.nyc3.digitaloceanspaces.com/media/launch_images/pad_39_20200803143542.jpg","total_launch_count":18},"webcast_live":false,"image":"https://spacelaunchnow-prod-east.nyc3.digitaloceanspaces.com/media/launcher_images/firefly_alpha_image_20200817170720.jpg","infographic":null,"program":[]},{"id":"397c50c5-8a2b-4ca5-807d-8911c14b7126","url":"https://ll.thespacedevs.com/2.2.0/launch/397c50c5-8a2b-4ca5-807d-8911c14b7126/","launch_library_id":1131,"slug":"gslv-mk-ii-eos-03-gisat-1","name":"GSLV Mk II | EOS-03 (GISAT-1)","status":{"id":2,"name":"TBD"},"net":"2021-03-15T00:00:00Z","window_end":"2021-03-15T00:00:00Z","window_start":"2021-03-15T00:00:00Z","inhold":false,"tbdtime":true,"tbddate":true,"probability":-1,"holdreason":"","failreason":"","hashtag":null,"launch_service_provider":{"id":31,"url":"https://ll.thespacedevs.com/2.2.0/agencies/31/","name":"Indian Space Research Organization","type":"Government"},"rocket":{"id":56,"configuration":{"id":168,"launch_library_id":60,"url":"https://ll.thespacedevs.com/2.2.0/config/launcher/168/","name":"GSLV Mk II","family":"PSLV","full_name":"GSLV Mk. II","variant":""}},"mission":{"id":750,"launch_library_id":458,"name":"GISAT-1","description":"GISAT-1 is an Indian earth observation satellite to be launched in geostationary orbit. It is tasked with continuous observation of Indian sub-continent and quick monitoring of natural hazards and disaster. GISAT carries an imaging payload consisting of of multi-spectral, multi-resolution from 50 m to 1.5 km. It will provide pictures of the area of interest on near real time basis including border areas.","launch_designator":null,"type":"Earth Science","orbit":{"id":2,"name":"Geostationary Transfer Orbit","abbrev":"GTO"}},"pad":{"id":82,"url":"https://ll.thespacedevs.com/2.2.0/pad/82/","agency_id":31,"name":"Satish Dhawan Space Centre Second Launch Pad","info_url":null,"wiki_url":"https://en.wikipedia.org/wiki/Satish_Dhawan_Space_Centre_Second_Launch_Pad","map_url":"https://www.google.com/maps?q=13.7199,80.2304","latitude":"13.7199","longitude":"80.2304","location":{"id":14,"url":"https://ll.thespacedevs.com/2.2.0/location/14/","name":"Sriharikota, Republic of India","country_code":"IND","map_image":"https://spacelaunchnow-prod-east.nyc3.digitaloceanspaces.com/media/launch_images/location_14_20200803142403.jpg","total_launch_count":53,"total_landing_count":0},"map_image":"https://spacelaunchnow-prod-east.nyc3.digitaloceanspaces.com/media/launch_images/pad_82_20200803143602.jpg","total_launch_count":15},"webcast_live":false,"image":"https://spacelaunchnow-prod-east.nyc3.digitaloceanspaces.com/media/launcher_images/gslv2520mk2520ii_image_20190825171642.jpg","infographic":"https://spacelaunchnow-prod-east.nyc3.digitaloceanspaces.com/media/launch_images/gslv2520mk252_infographic_20200805202604.png","program":[]},{"id":"5336dd45-9773-463b-acda-2a633b725d94","url":"https://ll.thespacedevs.com/2.2.0/launch/5336dd45-9773-463b-acda-2a633b725d94/","launch_library_id":1611,"slug":"sslv-eos-02-microsat-2a-demo-1","name":"SSLV | EOS-02 (Microsat-2A) (Demo 1)","status":{"id":2,"name":"TBD"},"net":"2021-03-15T00:00:00Z","window_end":"2021-03-15T00:00:00Z","window_start":"2021-03-15T00:00:00Z","inhold":false,"tbdtime":true,"tbddate":true,"probability":-1,"holdreason":"","failreason":"","hashtag":null,"launch_service_provider":{"id":31,"url":"https://ll.thespacedevs.com/2.2.0/agencies/31/","name":"Indian Space Research Organization","type":"Government"},"rocket":{"id":104,"configuration":{"id":150,"launch_library_id":189,"url":"https://ll.thespacedevs.com/2.2.0/config/launcher/150/","name":"SSLV","family":"","full_name":"SSLV","variant":""}},"mission":{"id":683,"launch_library_id":855,"name":"SSLV Demo 1","description":"First test flight of Indian SSLV (Small Satellite Launch Vehicle).","launch_designator":null,"type":"Test Flight","orbit":{"id":8,"name":"Low Earth Orbit","abbrev":"LEO"}},"pad":{"id":50,"url":"https://ll.thespacedevs.com/2.2.0/pad/50/","agency_id":31,"name":"Satish Dhawan Space Centre First Launch Pad","info_url":null,"wiki_url":"https://en.wikipedia.org/wiki/Satish_Dhawan_Space_Centre_First_Launch_Pad","map_url":"https://www.google.com/maps?q=13.733,80.235","latitude":"13.733","longitude":"80.235","location":{"id":14,"url":"https://ll.thespacedevs.com/2.2.0/location/14/","name":"Sriharikota, Republic of India","country_code":"IND","map_image":"https://spacelaunchnow-prod-east.nyc3.digitaloceanspaces.com/media/launch_images/location_14_20200803142403.jpg","total_launch_count":53,"total_landing_count":0},"map_image":"https://spacelaunchnow-prod-east.nyc3.digitaloceanspaces.com/media/launch_images/pad_50_20200803143457.jpg","total_launch_count":38},"webcast_live":false,"image":"https://spacelaunchnow-prod-east.nyc3.digitaloceanspaces.com/media/launcher_images/sslv_image_20190830213312.jpg","infographic":null,"program":[]},{"id":"54c50fe1-bbd1-4515-9630-37612383c3c1","url":"https://ll.thespacedevs.com/2.2.0/launch/54c50fe1-bbd1-4515-9630-37612383c3c1/","launch_library_id":1983,"slug":"soyuz-21afregat-m-cas500-1-rideshare","name":"Soyuz 2.1a/Fregat-M | CAS500-1 & rideshare","status":{"id":2,"name":"TBD"},"net":"2021-03-20T00:00:00Z","window_end":"2021-03-20T00:00:00Z","window_start":"2021-03-20T00:00:00Z","inhold":false,"tbdtime":true,"tbddate":false,"probability":-1,"holdreason":"","failreason":"","hashtag":null,"launch_service_provider":{"id":63,"url":"https://ll.thespacedevs.com/2.2.0/agencies/63/","name":"Russian Federal Space Agency (ROSCOSMOS)","type":"Government"},"rocket":{"id":2541,"configuration":{"id":45,"launch_library_id":83,"url":"https://ll.thespacedevs.com/2.2.0/config/launcher/45/","name":"Soyuz 2.1a/Fregat-M","family":"Soyuz","full_name":"Soyuz 2.1a Fregat-M","variant":"Fregat-M"}},"mission":{"id":1246,"launch_library_id":null,"name":"CAS500-1 & rideshare","description":"CAS500-1 is the first of two South Korean Earth observation satellites. These spacecraft feature the AEISS-C imaging system with a ground resolution of 0.5 m in panchromatic mode and 2 m in color mode.\r\n\r\nMore than a dozen other satellites are included as secondary payloads, among them being the first spacecraft by the Catalan Space Agency.","launch_designator":null,"type":"Earth Science","orbit":{"id":17,"name":"Sun-Synchronous Orbit","abbrev":"SSO"}},"pad":{"id":20,"url":"https://ll.thespacedevs.com/2.2.0/pad/20/","agency_id":null,"name":"31/6","info_url":null,"wiki_url":"","map_url":"http://maps.google.com/maps?q=45.996+N,+63.564+E","latitude":"45.996034","longitude":"63.564003","location":{"id":15,"url":"https://ll.thespacedevs.com/2.2.0/location/15/","name":"Baikonur Cosmodrome, Republic of Kazakhstan","country_code":"KAZ","map_image":"https://spacelaunchnow-prod-east.nyc3.digitaloceanspaces.com/media/launch_images/location_15_20200803142517.jpg","total_launch_count":466,"total_landing_count":0},"map_image":"https://spacelaunchnow-prod-east.nyc3.digitaloceanspaces.com/media/launch_images/pad_20_20200803143516.jpg","total_launch_count":76},"webcast_live":false,"image":"https://spacelaunchnow-prod-east.nyc3.digitaloceanspaces.com/media/launcher_images/soyuz25202.1a_image_20190726062341.png","infographic":null,"program":[]}]}